<?xml version="1.0" encoding="utf-8"?>
<!-- Generator: Adobe Illustrator 21.1.0, SVG Export Plug-In . SVG Version: 6.00 Build 0)  -->
<svg version="1.1" id="Layer_1" xmlns="http://www.w3.org/2000/svg" xmlns:xlink="http://www.w3.org/1999/xlink" x="0px" y="0px"
	 viewBox="0 0 626.5 746.7" style="enable-background:new 0 0 626.5 746.7;" xml:space="preserve">
<style type="text/css">
	.st0{fill:none;stroke:#1F3047;stroke-width:7;stroke-miterlimit:10;}
</style>
<path class="st0" d="M572.4,354.2l43.4-33c9.5-7.2,9.6-21.6,0-28.8l-43.5-33.1c-7-5.3-9.2-14.9-5.1-22.7l24.9-48.5
	c5.5-10.7-0.8-23.7-12.5-26l-53.3-10.7c-8.6-1.7-14.8-9.4-14.5-18.2l1.4-54.6c0.3-12-10.9-21-22.6-18L437.9,74
	c-8.5,2.2-17.4-2.1-21-10.1l-22.3-49.7c-4.9-11-19-14.2-28.2-6.4l-41.4,35c-6.8,5.7-16.6,5.7-23.4,0l-41.4-35
	c-9.2-7.8-23.3-4.6-28.2,6.4l-22.3,49.7c-3.6,8-12.5,12.3-21,10.1L136,60.5c-11.6-3-22.9,6-22.6,18l1.4,54.7
	c0.2,8.8-5.9,16.5-14.5,18.2l-53.3,10.7c-11.8,2.4-18,15.3-12.5,26l24.9,48.5c4,7.8,1.8,17.4-5.1,22.7l-43.5,33.1
	c-9.5,7.3-9.5,21.6,0,28.8l43.4,33c7,5.3,9.2,14.9,5.2,22.7l-24.9,48.6c-5.5,10.7,0.8,23.7,12.5,26l53.4,10.7
	c8.6,1.7,14.8,9.4,14.5,18.2l-1.4,54.6c-0.3,12,10.9,21,22.6,18l52.6-13.4c8.5-2.2,17.4,2.1,21,10.1l22.3,49.7
	c4.9,11,19,14.2,28.2,6.4l41.4-35c6.8-5.7,16.6-5.7,23.4,0l41.4,35c9.2,7.8,23.3,4.6,28.2-6.4l22.3-49.7c3.6-8,12.5-12.3,21-10.1
	l52.6,13.4c11.6,3,22.9-6,22.6-18l-1.4-54.6c-0.2-8.8,5.9-16.5,14.5-18.2l53.4-10.7c11.8-2.4,18-15.3,12.5-26l-24.9-48.6
	C563.2,369.1,565.4,359.5,572.4,354.2z"/>
<g>
	<path class="st0" d="M114.9,474.2L97,506L11.9,656.7c-4.7,8.3,3,18,12.1,15.5l76.7-21.3c5.7-1.6,11.6,1.8,13.1,7.4l21.3,77.1
		c2.5,9.2,14.9,10.7,19.5,2.4l67.3-118.9l10.3-18.4"/>
	<path class="st0" d="M395.5,597.4l10.4,18.4l69,121.9c4.7,8.3,17,6.7,19.5-2.4l21.3-77.1c1.6-5.7,7.4-9,13.1-7.4l76.7,21.3
		c9.1,2.5,16.8-7.2,12.1-15.5l-88.3-156.3l-15.8-29.7"/>
</g>
<ellipse class="st0" cx="313.2" cy="306.9" rx="217" ry="217.6"/>
<path class="st0" d="M354.2,191.4v-41.3c0-7.2-8.2-11.4-14.1-7.2l-100,72.4c-2.3,1.7-3.7,4.4-3.7,7.2v36.2c0,3.1,1.5,5.6,3.7,7.2
	c-0.3-0.2-0.6-0.4-0.8-0.7c0.3,0.3,0.7,0.7,1.1,0.9l61.2,44.3l-61.5,44.5c-2.3,1.7-3.7,4.3-3.7,7.2v36.2c0,3.3,1.7,6,4.2,7.5
	c0.2,0.2,0.4,0.3,0.6,0.5l98.9,71.6c5.9,4.2,14.1,0,14.1-7.2v-41.3c0-3-1.4-5.8-3.9-7.4l-62.2-41.8l61.4-41.3
	c-2.3,1.2,4.7-1.3,4.7-7.9v-41.3c0-3-1.4-5.7-3.9-7.4L288,240.7l62.2-41.9C352.7,197.1,354.2,194.4,354.2,191.4z"/>
</svg>
